{
  "type": "service_account",
  "project_id": "sakuracosmetic",
  "private_key_id": "021992dce35fc356a8bd8b4d09a8c74ea86b202e",
  "private_key": "-----BEGIN PRIVATE KEY-----\nMIIEvgIBADANBgkqhkiG9w0BAQEFAASCBKgwggSkAgEAAoIBAQCrRlOV5XQd9GVM\n2qD7p7rZrHkbRFOsPIrf0gFiEREpA5xD/mU37TUKE8vWD+7MMOK5sc7HCGKNm4yy\nCMZSE1wQWaFUaiV9lnfWcGQeXbbJ9NHQ0Wrh978HZZvbiWDI1LYh3BzwhdDxU87Z\ng5w8vOS5kN1QM2TiZWl4WJcN05QWbCXvalr5BmI8Ecak0ZSchJXTWCotsG3/n5kk\niwSnox6UTISGLAXT/lVJKWEKOp8eEPmUji8D0mpvrqiS2DHozF085WGLxgTouC6W\n0lUrGKbYhQghgNajOO4jMx11hhyjvLztK5/pOvwfNpadL9yPR7ZqNk2/eFdQy5eZ\nTuAVYw/RAgMBAAECggEAAMqMoMzkTi4emK4K39a8xXwnPBHC/DD0aEfJU1lmVaTr\nYCII+Crrm44PW0AMF5vjND3myWMXx3UwP3NMbT0jJ/0uAlySK0Qabh5rS/udWE39\n+SO6hWw2UPOudmNqU8stwzbH2HGZzz+WnUkfG+W4fcX2S8RNA0G6LMDmA72WOctI\nq0IHmNh+jroC7coqKroPHd2xJj/WbQqGLMfIYYuT2W29cFgUg3TFtlajSy0Axitb\n45UWnlBhd3berGHAu6ufM5UftaEpD16u3k0QtXs3td3a4Wjl7cZP1SR6hEWVaJW8\n1feQ8yOcnZCbb8VF9AEIprcBsAS1+rRzLrZDZ5ZE9QKBgQDUdwb/eK/eoMIn+06d\nUeLfrRp7d/MaQNIm3osj5AFuRU5D45L4oLmPvzOsf0UHmjOs1hxdbnPX89y/MHis\nRHl7TNk/LhScx/kDja7DHel64sLccRj4V6MOZi9n6gdBMyRH/YWVOKLIEdzr7php\nUmIOGJmC2K+8Hqb1hLDJOOsvfQKBgQDOXqQqxjuJjOC3kEbBRBlISX6RYCKmFKvc\n+2mmkIJHqZs4UdQmv5rg7Tskh1N+bLW4Lrb8lFAr4F8B551dHmvvgWx+vjMLFpsH\niODC2C+kzphRF/cen/Cu8c/IW9jCWkaAmeelC92JhJm35FHsWC2csXPdRZMgBgVx\nHHwq2+X55QKBgQC2+tPCDbSZbaYJPPwVrUJRFQorr8BkqdLTuvHmNSWuTG39Ne+L\nxRBK5oagVvOieoFqpvPC269VGybQWfRzmH1vXV30dcE2zVp+XvVWAVrlhIoBxD2X\nFBLQAd1uBzW8R0lF3ue+/gnjeM7lOpV0j4j3TuRWtjuTLmroJCEFC8oxGQKBgH4H\nUCyLKRrkfOu9YWhvxRzfPTtcwWw5nYdzxl6hS96l1pQ7bNtJEjWgywiQ2E2R6BwV\n80wm6xsQiBTqtLCEfpgiqvZwA04XPRAJ6HE1g0sbm+uSPilmtZ6xMBqE9MgkR4AL\n/WpO57ku0I18EwfKBfj2afLMpX/eDX65TZ8C8dx9AoGBALfGkzNSnDJ3TYOA9izN\nX9A1lq8/QZ4k0wqXRoCrDR549MBAqxbM9YAwQDiy7zNSqvb1sWLZ7eGYQJ7qMp0v\nXLmJdMGR+Qac39hJA9tck+3KNmB6DMwp4SVG/x/WWLDA/O1fzshf+TSefVBUgcBV\n1hkN42qCAyakFiAlDH/C6/RD\n-----END PRIVATE KEY-----\n",
  "client_email": "swp391@sakuracosmetic.iam.gserviceaccount.com",
  "client_id": "112093620686779742563",
  "auth_uri": "https://accounts.google.com/o/oauth2/auth",
  "token_uri": "https://oauth2.googleapis.com/token",
  "auth_provider_x509_cert_url": "https://www.googleapis.com/oauth2/v1/certs",
  "client_x509_cert_url": "https://www.googleapis.com/robot/v1/metadata/x509/swp391%40sakuracosmetic.iam.gserviceaccount.com",
  "universe_domain": "googleapis.com"
}
